{
  "project_info": {
    "project_number": "391252955638",
    "firebase_url": "https://ultimatesmartstudent.firebaseio.com",
    "project_id": "ultimatesmartstudent",
    "storage_bucket": "ultimatesmartstudent.appspot.com"
  },
  "client": [
    {
      "client_info": {
        "mobilesdk_app_id": "1:391252955638:android:ca3ae19cb7677267d577d7",
        "android_client_info": {
          "package_name": "com.ultimate.ultimatesmartschool"
        }
      },
      "oauth_client": [
        {
          "client_id": "391252955638-khs83rvs5a0r7kqggrtj1o5ekvgpvspf.apps.googleusercontent.com",
          "client_type": 1,
          "android_info": {
            "package_name": "com.ultimate.ultimatesmartschool",
            "certificate_hash": "cbcace87dd949de99462a33c3f3237b63c4fb821"
          }
        },
        {
          "client_id": "391252955638-5jfig1kpv2kvg8vdk4j9c70dftniqpd7.apps.googleusercontent.com",
          "client_type": 1,
          "android_info": {
            "package_name": "com.ultimate.ultimatesmartschool",
            "certificate_hash": "df55af1d65f7ec33d32c100d56f913eb1daa1dda"
          }
        },
        {
          "client_id": "391252955638-fcvp9ptt57qqtslv38g66simes48blba.apps.googleusercontent.com",
          "client_type": 1,
          "android_info": {
            "package_name": "com.ultimate.ultimatesmartschool",
            "certificate_hash": "66d4e3d115112d12f792a573d4ba7a49457dbeb2"
          }
        },
        {
          "client_id": "391252955638-blkh2g9pnphlt66rbgqgejqnddri75gq.apps.googleusercontent.com",
          "client_type": 3
        }
      ],
      "api_key": [
        {
          "current_key": "AIzaSyAX4ZCd8E0quz2h0_YGFG35-1SUiXrh2Ls"
        }
      ],
      "services": {
        "appinvite_service": {
          "other_platform_oauth_client": [
            {
              "client_id": "391252955638-blkh2g9pnphlt66rbgqgejqnddri75gq.apps.googleusercontent.com",
              "client_type": 3
            }
          ]
        }
      }
    },
    {
      "client_info": {
        "mobilesdk_app_id": "1:391252955638:android:bfbdef6a9dba6c83d577d7",
        "android_client_info": {
          "package_name": "com.ultimate.ultimatesmartstaff"
        }
      },
      "oauth_client": [
        {
          "client_id": "391252955638-6orbrc5tdt7epm4ka0804n6p3upm965m.apps.googleusercontent.com",
          "client_type": 1,
          "android_info": {
            "package_name": "com.ultimate.ultimatesmartstaff",
            "certificate_hash": "add611a4ed1368922dd41a9ba4a96fe5a79bb01c"
          }
        },
        {
          "client_id": "391252955638-snulegi87gcu8ljlfh0qrt74t3s0d5tl.apps.googleusercontent.com",
          "client_type": 1,
          "android_info": {
            "package_name": "com.ultimate.ultimatesmartstaff",
            "certificate_hash": "66d4e3d115112d12f792a573d4ba7a49457dbeb2"
          }
        },
        {
          "client_id": "391252955638-blkh2g9pnphlt66rbgqgejqnddri75gq.apps.googleusercontent.com",
          "client_type": 3
        }
      ],
      "api_key": [
        {
          "current_key": "AIzaSyAX4ZCd8E0quz2h0_YGFG35-1SUiXrh2Ls"
        }
      ],
      "services": {
        "appinvite_service": {
          "other_platform_oauth_client": [
            {
              "client_id": "391252955638-blkh2g9pnphlt66rbgqgejqnddri75gq.apps.googleusercontent.com",
              "client_type": 3
            }
          ]
        }
      }
    },
    {
      "client_info": {
        "mobilesdk_app_id": "1:391252955638:android:d7d2dcaf81d77eabd577d7",
        "android_client_info": {
          "package_name": "com.ultimate.ultimatesmartstudent"
        }
      },
      "oauth_client": [
        {
          "client_id": "391252955638-hgvel25p4ls6foe11fpo9ot23burrrtu.apps.googleusercontent.com",
          "client_type": 1,
          "android_info": {
            "package_name": "com.ultimate.ultimatesmartstudent",
            "certificate_hash": "de03dcf35fa858e71b75cca81069c015cddd9ccc"
          }
        },
        {
          "client_id": "391252955638-o3ok858q3e6l6r6do6htcgt0ploe41pn.apps.googleusercontent.com",
          "client_type": 1,
          "android_info": {
            "package_name": "com.ultimate.ultimatesmartstudent",
            "certificate_hash": "cbcace87dd949de99462a33c3f3237b63c4fb821"
          }
        },
        {
          "client_id": "391252955638-4ts0sf8np6n2j6mcs9oqp3blrd5at2br.apps.googleusercontent.com",
          "client_type": 1,
          "android_info": {
            "package_name": "com.ultimate.ultimatesmartstudent",
            "certificate_hash": "df55af1d65f7ec33d32c100d56f913eb1daa1dda"
          }
        },
        {
          "client_id": "391252955638-8f4962vkukvm86t8plcvc2jkeeqh9iik.apps.googleusercontent.com",
          "client_type": 1,
          "android_info": {
            "package_name": "com.ultimate.ultimatesmartstudent",
            "certificate_hash": "4d134f89ae4dbb72b35eef87a8a9e07ae3667c5b"
          }
        },
        {
          "client_id": "391252955638-blkh2g9pnphlt66rbgqgejqnddri75gq.apps.googleusercontent.com",
          "client_type": 3
        }
      ],
      "api_key": [
        {
          "current_key": "AIzaSyAX4ZCd8E0quz2h0_YGFG35-1SUiXrh2Ls"
        }
      ],
      "services": {
        "appinvite_service": {
          "other_platform_oauth_client": [
            {
              "client_id": "391252955638-blkh2g9pnphlt66rbgqgejqnddri75gq.apps.googleusercontent.com",
              "client_type": 3
            }
          ]
        }
      }
    }
  ],
  "configuration_version": "1"
}